<?xml version="1.0" encoding="UTF-8" standalone="no"?>
<svg
   xmlns:dc="http://purl.org/dc/elements/1.1/"
   xmlns:cc="http://creativecommons.org/ns#"
   xmlns:rdf="http://www.w3.org/1999/02/22-rdf-syntax-ns#"
   xmlns:svg="http://www.w3.org/2000/svg"
   xmlns="http://www.w3.org/2000/svg"
   viewBox="0 0 252 298"
   id="svg2"
   height="298mm"
   width="252mm"
   version="1.0">
  <metadata
     id="metadata13">
    <rdf:RDF>
      <cc:Work
         rdf:about="">
        <dc:format>image/svg+xml</dc:format>
        <dc:type
           rdf:resource="http://purl.org/dc/dcmitype/StillImage" />
      </cc:Work>
    </rdf:RDF>
  </metadata>
  <defs
     id="defs4">
    <pattern
       y="0"
       x="0"
       height="6"
       width="6"
       patternUnits="userSpaceOnUse"
       id="EMFhbasepattern" />
  </defs>
  <path
     id="path7"
     d="M 126.19482,-0.21166497 36.025384,84.052269 C 12.975082,107.52582 0.04233305,139.08504 0,171.97776 c 0,33.3375 13.250249,65.29888 36.808551,88.8571 23.579385,23.58023 55.541051,36.83056 88.878269,36.83056 33.31605,0 65.27744,-13.25033 88.85682,-36.83056 23.5585,-23.55822 36.80855,-55.5196 36.80855,-88.8571 -0.0635,-35.09406 -14.79522,-68.55827 -40.61855,-92.306991 z M 125.96199,78.252602 c 52.3446,0 94.76232,42.629388 94.76232,95.206818 0,52.57772 -42.41772,95.2071 -94.76232,95.2071 -52.323721,0 -94.741439,-42.62938 -94.741439,-95.2071 0,-52.57743 42.417718,-95.206818 94.741439,-95.206818 z"
     style="fill:#ffffff;fill-opacity:1;fill-rule:nonzero;stroke:none" />
  <path
     id="path9"
     d="m 126.19482,92.095602 c -45.317551,0 -82.041436,36.427548 -82.041436,81.363818 0,13.35617 3.323167,26.4795 9.652,38.24789 l 28.701718,-27.70689 c -0.867833,-3.51366 -1.3335,-7.13316 -1.354666,-10.75266 0,-24.87056 20.277384,-45.04211 45.275214,-45.04211 4.08517,0.0212 8.17005,0.59267 12.12822,1.69334 l 28.08817,-27.1145 C 154.32504,95.799487 140.3762,92.116769 126.19482,92.095602 Z m 55.85827,21.843718 -26.09822,25.20922 c 1.778,1.54516 3.45017,3.2385 4.97417,5.05883 l 26.05588,-25.16688 c -1.56633,-1.75684 -3.21733,-3.47134 -4.93183,-5.10117 z m 16.04433,20.42555 -28.02438,27.051 c 1.05833,3.85233 1.60838,7.83167 1.60838,11.83189 0,24.87083 -20.27738,45.04238 -45.25377,45.04238 -4.48733,-0.0212 -8.93233,-0.67733 -13.208,-1.98967 l -28.320714,27.34734 c 12.509217,7.30221 26.775554,11.15455 41.295884,11.19688 45.31727,0 82.04144,-36.42755 82.04144,-81.38527 0,-13.67338 -3.4925,-27.11422 -10.13884,-39.09455 z M 91.270102,201.58992 64.705936,227.22247 c 1.5875,1.778 3.2385,3.47134 4.974166,5.08 l 26.521551,-25.61138 c -1.777717,-1.56633 -3.428717,-3.28083 -4.931551,-5.10117 z"
     style="fill:#ffffff;fill-opacity:1;fill-rule:nonzero;stroke:none" />
</svg>
